properties{
  x = 0,
  y = 0,
  width = 320,
  height = 240,
  world = "inside_world",
  tileset = "16",
  music = "same",
}

tile{
  layer = 0,
  x = 24,
  y = 24,
  width = 272,
  height = 192,
  pattern = 19,
}

tile{
  layer = 0,
  x = 24,
  y = 0,
  width = 120,
  height = 24,
  pattern = 9,
}

tile{
  layer = 0,
  x = 0,
  y = 24,
  width = 24,
  height = 96,
  pattern = 5,
}

tile{
  layer = 0,
  x = 0,
  y = 120,
  width = 24,
  height = 96,
  pattern = 10,
}

tile{
  layer = 0,
  x = 0,
  y = 0,
  width = 24,
  height = 24,
  pattern = 1,
}

tile{
  layer = 0,
  x = 176,
  y = 0,
  width = 120,
  height = 24,
  pattern = 15,
}

tile{
  layer = 0,
  x = 24,
  y = 216,
  width = 120,
  height = 24,
  pattern = 14,
}

tile{
  layer = 0,
  x = 176,
  y = 216,
  width = 120,
  height = 24,
  pattern = 16,
}

tile{
  layer = 0,
  x = 296,
  y = 24,
  width = 24,
  height = 96,
  pattern = 7,
}

tile{
  layer = 0,
  x = 296,
  y = 120,
  width = 24,
  height = 96,
  pattern = 11,
}

tile{
  layer = 0,
  x = 296,
  y = 0,
  width = 24,
  height = 24,
  pattern = 2,
}

tile{
  layer = 0,
  x = 296,
  y = 216,
  width = 24,
  height = 24,
  pattern = 3,
}

tile{
  layer = 0,
  x = 0,
  y = 216,
  width = 24,
  height = 24,
  pattern = 4,
}

tile{
  layer = 0,
  x = 296,
  y = 112,
  width = 24,
  height = 8,
  pattern = 13,
}

tile{
  layer = 0,
  x = 296,
  y = 120,
  width = 24,
  height = 8,
  pattern = 13,
}

tile{
  layer = 0,
  x = 0,
  y = 112,
  width = 24,
  height = 8,
  pattern = 12,
}

tile{
  layer = 0,
  x = 0,
  y = 120,
  width = 24,
  height = 8,
  pattern = 12,
}

tile{
  layer = 0,
  x = 0,
  y = 128,
  width = 24,
  height = 8,
  pattern = 12,
}

tile{
  layer = 0,
  x = 0,
  y = 104,
  width = 24,
  height = 8,
  pattern = 12,
}

tile{
  layer = 0,
  x = 296,
  y = 128,
  width = 24,
  height = 8,
  pattern = 13,
}

tile{
  layer = 0,
  x = 296,
  y = 104,
  width = 24,
  height = 8,
  pattern = 13,
}

tile{
  layer = 0,
  x = 144,
  y = 0,
  width = 8,
  height = 24,
  pattern = 17,
}

tile{
  layer = 0,
  x = 152,
  y = 0,
  width = 8,
  height = 24,
  pattern = 17,
}

tile{
  layer = 0,
  x = 160,
  y = 0,
  width = 8,
  height = 24,
  pattern = 17,
}

tile{
  layer = 0,
  x = 168,
  y = 0,
  width = 8,
  height = 24,
  pattern = 17,
}

tile{
  layer = 0,
  x = 144,
  y = 216,
  width = 8,
  height = 24,
  pattern = 18,
}

tile{
  layer = 0,
  x = 152,
  y = 216,
  width = 8,
  height = 24,
  pattern = 18,
}

tile{
  layer = 0,
  x = 160,
  y = 216,
  width = 8,
  height = 24,
  pattern = 18,
}

tile{
  layer = 0,
  x = 168,
  y = 216,
  width = 8,
  height = 24,
  pattern = 18,
}

tile{
  layer = 0,
  x = 0,
  y = 88,
  width = 8,
  height = 48,
  pattern = 31,
}

tile{
  layer = 0,
  x = 8,
  y = 96,
  width = 16,
  height = 8,
  pattern = 37,
}

tile{
  layer = 0,
  x = 8,
  y = 120,
  width = 16,
  height = 8,
  pattern = 38,
}

tile{
  layer = 0,
  x = 8,
  y = 104,
  width = 16,
  height = 16,
  pattern = 23,
}

tile{
  layer = 0,
  x = 312,
  y = 88,
  width = 8,
  height = 48,
  pattern = 32,
}

tile{
  layer = 0,
  x = 136,
  y = 232,
  width = 48,
  height = 8,
  pattern = 30,
}

tile{
  layer = 0,
  x = 136,
  y = 0,
  width = 48,
  height = 8,
  pattern = 29,
}

teletransporter{
  layer = 0,
  x = 24,
  y = 104,
  width = 16,
  height = 16,
  name = "tele_to_room3",
  transition = 1,
  destination_map = "room3",
  destination = "from_18",
}

destination{
  layer = 0,
  x = 48,
  y = 117,
  name = "from_3",
  direction = 0,
}

enemy{
  layer = 0,
  x = 248,
  y = 197,
  name = "enemy_2",
  direction = 1,
  breed = "blue_bullblin",
}

tile{
  layer = 2,
  x = 0,
  y = 96,
  width = 8,
  height = 32,
  pattern = 27,
}

