properties{
  x = 0,
  y = 0,
  width = 320,
  height = 240,
  world = "inside_world",
  tileset = "16",
  music = "triforce",
}

tile{
  layer = 0,
  x = 24,
  y = 24,
  width = 272,
  height = 192,
  pattern = 19,
}

tile{
  layer = 0,
  x = 0,
  y = 0,
  width = 160,
  height = 24,
  pattern = 9,
}

tile{
  layer = 0,
  x = 0,
  y = 24,
  width = 24,
  height = 128,
  pattern = 5,
}

tile{
  layer = 0,
  x = 0,
  y = 112,
  width = 24,
  height = 128,
  pattern = 10,
}

tile{
  layer = 0,
  x = 0,
  y = 0,
  width = 24,
  height = 24,
  pattern = 1,
}

tile{
  layer = 0,
  x = 160,
  y = 0,
  width = 160,
  height = 24,
  pattern = 15,
}

tile{
  layer = 0,
  x = 24,
  y = 216,
  width = 160,
  height = 24,
  pattern = 14,
}

tile{
  layer = 0,
  x = 152,
  y = 216,
  width = 160,
  height = 24,
  pattern = 16,
}

tile{
  layer = 0,
  x = 296,
  y = 0,
  width = 24,
  height = 128,
  pattern = 7,
}

tile{
  layer = 0,
  x = 296,
  y = 112,
  width = 24,
  height = 128,
  pattern = 11,
}

tile{
  layer = 0,
  x = 0,
  y = 96,
  width = 8,
  height = 48,
  pattern = 31,
}

tile{
  layer = 0,
  x = 296,
  y = 0,
  width = 24,
  height = 24,
  pattern = 2,
}

tile{
  layer = 0,
  x = 296,
  y = 216,
  width = 24,
  height = 24,
  pattern = 3,
}

tile{
  layer = 0,
  x = 0,
  y = 216,
  width = 24,
  height = 24,
  pattern = 4,
}

tile{
  layer = 0,
  x = 312,
  y = 96,
  width = 8,
  height = 48,
  pattern = 32,
}

tile{
  layer = 0,
  x = 136,
  y = 0,
  width = 48,
  height = 8,
  pattern = 29,
}

tile{
  layer = 0,
  x = 136,
  y = 232,
  width = 48,
  height = 8,
  pattern = 29,
}

tile{
  layer = 0,
  x = 8,
  y = 104,
  width = 16,
  height = 8,
  pattern = 37,
}

tile{
  layer = 0,
  x = 8,
  y = 128,
  width = 16,
  height = 8,
  pattern = 38,
}

tile{
  layer = 0,
  x = 8,
  y = 112,
  width = 16,
  height = 16,
  pattern = 23,
}

tile{
  layer = 0,
  x = 72,
  y = 56,
  width = 32,
  height = 112,
  pattern = 46,
}

tile{
  layer = 0,
  x = 72,
  y = 56,
  width = 176,
  height = 32,
  pattern = 46,
}

tile{
  layer = 0,
  x = 232,
  y = 56,
  width = 32,
  height = 112,
  pattern = 46,
}

tile{
  layer = 0,
  x = 104,
  y = 152,
  width = 16,
  height = 16,
  pattern = 48,
}

tile{
  layer = 0,
  x = 120,
  y = 136,
  width = 16,
  height = 16,
  pattern = 48,
}

tile{
  layer = 0,
  x = 120,
  y = 120,
  width = 16,
  height = 16,
  pattern = 48,
}

tile{
  layer = 0,
  x = 200,
  y = 120,
  width = 16,
  height = 16,
  pattern = 50,
}

tile{
  layer = 0,
  x = 200,
  y = 136,
  width = 16,
  height = 16,
  pattern = 50,
}

tile{
  layer = 0,
  x = 216,
  y = 152,
  width = 16,
  height = 16,
  pattern = 50,
}

teletransporter{
  layer = 0,
  x = 160,
  y = 96,
  width = 16,
  height = 16,
  name = "tele_to_0",
  sprite = "entities/teletransporter",
  sound = "warp",
  transition = 1,
  destination_map = "0",
  destination = "start_position",
}

destination{
  layer = 0,
  x = 48,
  y = 125,
  name = "fromBoss",
  direction = 0,
}

teletransporter{
  layer = 0,
  x = 24,
  y = 112,
  width = 16,
  height = 16,
  name = "tele_to_room11",
  transition = 1,
  destination_map = "room11",
  destination = "fromTriforce",
}

tile{
  layer = 2,
  x = 0,
  y = 104,
  width = 8,
  height = 32,
  pattern = 27,
}

